[
    {
        "key": "group_58c125aa0a8fe",
        "title": "Article options",
        "fields": [
            {
                "key": "field_58c125b771381",
                "label": "Featured Article",
                "name": "featured_article",
                "type": "true_false",
                "instructions": "",
                "required": 0,
                "conditional_logic": 0,
                "wrapper": {
                    "width": "",
                    "class": "",
                    "id": ""
                },
                "message": "Make this article featured on home page",
                "default_value": 0,
                "ui": 1,
                "ui_on_text": "",
                "ui_off_text": ""
            },
            {
                "key": "field_58f2c7169d690",
                "label": "Sticky Article",
                "name": "sticky_article",
                "type": "true_false",
                "instructions": "",
                "required": 0,
                "conditional_logic": 0,
                "wrapper": {
                    "width": "",
                    "class": "",
                    "id": ""
                },
                "message": "Push article to the top of its archive page.",
                "default_value": 0,
                "ui": 1,
                "ui_on_text": "",
                "ui_off_text": ""
            }
        ],
        "location": [
            [
                {
                    "param": "post_type",
                    "operator": "==",
                    "value": "advice"
                }
            ]
        ],
        "menu_order": 0,
        "position": "acf_after_title",
        "style": "default",
        "label_placement": "top",
        "instruction_placement": "label",
        "hide_on_screen": "",
        "active": 1,
        "description": ""
    },
    {
        "key": "group_58d1218f09f18",
        "title": "Broker callout",
        "fields": [
            {
                "key": "field_58d1219a6e798",
                "label": "Headline",
                "name": "callout_headline",
                "type": "textarea",
                "instructions": "",
                "required": 0,
                "conditional_logic": 0,
                "wrapper": {
                    "width": "",
                    "class": "",
                    "id": ""
                },
                "default_value": "",
                "placeholder": "",
                "maxlength": "",
                "rows": 3,
                "new_lines": "br"
            },
            {
                "key": "field_58d121ea6e79a",
                "label": "Call to action",
                "name": "callout_text",
                "type": "text",
                "instructions": "",
                "required": 0,
                "conditional_logic": 0,
                "wrapper": {
                    "width": "",
                    "class": "",
                    "id": ""
                },
                "default_value": "",
                "placeholder": "",
                "prepend": "",
                "append": "",
                "maxlength": ""
            },
            {
                "key": "field_58d121b66e799",
                "label": "Link",
                "name": "callout_link",
                "type": "page_link",
                "instructions": "",
                "required": 1,
                "conditional_logic": 0,
                "wrapper": {
                    "width": "",
                    "class": "",
                    "id": ""
                },
                "post_type": [],
                "taxonomy": [],
                "allow_null": 0,
                "allow_archives": 0,
                "multiple": 0
            }
        ],
        "location": [
            [
                {
                    "param": "page_template",
                    "operator": "==",
                    "value": "my-templates\/home.php"
                }
            ]
        ],
        "menu_order": 0,
        "position": "normal",
        "style": "default",
        "label_placement": "top",
        "instruction_placement": "label",
        "hide_on_screen": "",
        "active": 1,
        "description": ""
    },
    {
        "key": "group_589c6eaf33566",
        "title": "Coming soon page",
        "fields": [
            {
                "key": "field_589c710962440",
                "label": "Signoff",
                "name": "signoff",
                "type": "image",
                "instructions": "",
                "required": 0,
                "conditional_logic": 0,
                "wrapper": {
                    "width": "",
                    "class": "",
                    "id": ""
                },
                "return_format": "id",
                "preview_size": "thumbnail",
                "library": "all",
                "min_width": "",
                "min_height": "",
                "min_size": "",
                "max_width": 700,
                "max_height": "",
                "max_size": "0.7",
                "mime_types": "png, jpg, jpeg"
            },
            {
                "key": "field_589c6eb40afd4",
                "label": "Background image",
                "name": "background_image",
                "type": "repeater",
                "instructions": "",
                "required": 0,
                "conditional_logic": 0,
                "wrapper": {
                    "width": "25",
                    "class": "",
                    "id": ""
                },
                "collapsed": "",
                "min": 0,
                "max": 3,
                "layout": "block",
                "button_label": "Add background image",
                "sub_fields": [
                    {
                        "key": "field_589c6ef70afd5",
                        "label": "Image",
                        "name": "image",
                        "type": "image",
                        "instructions": "",
                        "required": 0,
                        "conditional_logic": 0,
                        "wrapper": {
                            "width": "",
                            "class": "",
                            "id": ""
                        },
                        "return_format": "id",
                        "preview_size": "thumbnail",
                        "library": "all",
                        "min_width": 1440,
                        "min_height": 900,
                        "min_size": "",
                        "max_width": "",
                        "max_height": "",
                        "max_size": "0.7",
                        "mime_types": "jpg,jpeg,png"
                    }
                ]
            },
            {
                "key": "field_589d93023bb9d",
                "label": "Contact details",
                "name": "",
                "type": "tab",
                "instructions": "",
                "required": 0,
                "conditional_logic": 0,
                "wrapper": {
                    "width": "",
                    "class": "",
                    "id": ""
                },
                "placement": "top",
                "endpoint": 0
            },
            {
                "key": "field_589d9368b07fe",
                "label": "Text before -",
                "name": "text_before",
                "type": "textarea",
                "instructions": "",
                "required": 0,
                "conditional_logic": 0,
                "wrapper": {
                    "width": "",
                    "class": "",
                    "id": ""
                },
                "default_value": "",
                "placeholder": "",
                "maxlength": "",
                "rows": 3,
                "new_lines": ""
            },
            {
                "key": "field_589d90b134ca8",
                "label": "Contact details",
                "name": "contact_details",
                "type": "repeater",
                "instructions": "",
                "required": 0,
                "conditional_logic": 0,
                "wrapper": {
                    "width": "",
                    "class": "",
                    "id": ""
                },
                "collapsed": "field_589d912b34caa",
                "min": 0,
                "max": 0,
                "layout": "row",
                "button_label": "Add contact type",
                "sub_fields": [
                    {
                        "key": "field_589d912b34caa",
                        "label": "Type",
                        "name": "type",
                        "type": "radio",
                        "instructions": "",
                        "required": 0,
                        "conditional_logic": 0,
                        "wrapper": {
                            "width": "",
                            "class": "",
                            "id": ""
                        },
                        "choices": {
                            "link": "Link \/ Email",
                            "num": "Number",
                            "freetext": "Other (Free text)"
                        },
                        "allow_null": 0,
                        "other_choice": 0,
                        "save_other_choice": 0,
                        "default_value": "",
                        "layout": "vertical",
                        "return_format": "value"
                    },
                    {
                        "key": "field_589d90c234ca9",
                        "label": "Icon",
                        "name": "icon",
                        "type": "image",
                        "instructions": "",
                        "required": 0,
                        "conditional_logic": 0,
                        "wrapper": {
                            "width": "",
                            "class": "",
                            "id": ""
                        },
                        "return_format": "id",
                        "preview_size": "thumbnail",
                        "library": "all",
                        "min_width": 96,
                        "min_height": 96,
                        "min_size": "",
                        "max_width": 300,
                        "max_height": 300,
                        "max_size": "0.2",
                        "mime_types": "jpg, png, jpeg, gif"
                    },
                    {
                        "key": "field_589d921134cab",
                        "label": "Tel Number",
                        "name": "tel_number",
                        "type": "number",
                        "instructions": "",
                        "required": 0,
                        "conditional_logic": [
                            [
                                {
                                    "field": "field_589d912b34caa",
                                    "operator": "==",
                                    "value": "num"
                                }
                            ]
                        ],
                        "wrapper": {
                            "width": "",
                            "class": "",
                            "id": ""
                        },
                        "default_value": "",
                        "placeholder": "",
                        "prepend": "",
                        "append": "",
                        "min": "",
                        "max": "",
                        "step": ""
                    },
                    {
                        "key": "field_589d923234cac",
                        "label": "Link \/ Email",
                        "name": "link",
                        "type": "text",
                        "instructions": "",
                        "required": 0,
                        "conditional_logic": [
                            [
                                {
                                    "field": "field_589d912b34caa",
                                    "operator": "==",
                                    "value": "link"
                                }
                            ]
                        ],
                        "wrapper": {
                            "width": "",
                            "class": "",
                            "id": ""
                        },
                        "default_value": "",
                        "placeholder": "",
                        "prepend": "",
                        "append": "",
                        "maxlength": ""
                    },
                    {
                        "key": "field_589d925c34cad",
                        "label": "Other",
                        "name": "other",
                        "type": "text",
                        "instructions": "",
                        "required": 0,
                        "conditional_logic": [
                            [
                                {
                                    "field": "field_589d912b34caa",
                                    "operator": "==",
                                    "value": "freetext"
                                }
                            ]
                        ],
                        "wrapper": {
                            "width": "",
                            "class": "",
                            "id": ""
                        },
                        "default_value": "",
                        "placeholder": "",
                        "prepend": "",
                        "append": "",
                        "maxlength": ""
                    }
                ]
            }
        ],
        "location": [
            [
                {
                    "param": "page",
                    "operator": "==",
                    "value": "2"
                }
            ]
        ],
        "menu_order": 0,
        "position": "normal",
        "style": "default",
        "label_placement": "top",
        "instruction_placement": "label",
        "hide_on_screen": "",
        "active": 1,
        "description": ""
    },
    {
        "key": "group_58f2bc4ccec26",
        "title": "Excerpt",
        "fields": [
            {
                "key": "field_58f2bc51f67b2",
                "label": "Excerpt",
                "name": "excerpt",
                "type": "textarea",
                "instructions": "140 character limit",
                "required": 1,
                "conditional_logic": 0,
                "wrapper": {
                    "width": "",
                    "class": "",
                    "id": ""
                },
                "default_value": "",
                "placeholder": "",
                "maxlength": 140,
                "rows": 4,
                "new_lines": ""
            }
        ],
        "location": [
            [
                {
                    "param": "post_type",
                    "operator": "==",
                    "value": "advice"
                }
            ],
            [
                {
                    "param": "post_type",
                    "operator": "==",
                    "value": "post"
                }
            ]
        ],
        "menu_order": 0,
        "position": "normal",
        "style": "seamless",
        "label_placement": "top",
        "instruction_placement": "label",
        "hide_on_screen": [
            "excerpt",
            "custom_fields",
            "send-trackbacks"
        ],
        "active": 1,
        "description": ""
    },
    {
        "key": "group_58f40edda74a0",
        "title": "Headline",
        "fields": [
            {
                "key": "field_58f40eddac24a",
                "label": "Headline",
                "name": "m_headline",
                "type": "textarea",
                "instructions": "50 character limit",
                "required": 0,
                "conditional_logic": 0,
                "wrapper": {
                    "width": "",
                    "class": "",
                    "id": ""
                },
                "default_value": "",
                "placeholder": "",
                "maxlength": 50,
                "rows": 2,
                "new_lines": "br"
            }
        ],
        "location": [
            [
                {
                    "param": "page_template",
                    "operator": "==",
                    "value": "my-templates\/contact.php"
                }
            ],
            [
                {
                    "param": "page_template",
                    "operator": "==",
                    "value": "my-templates\/archive.php"
                }
            ],
            [
                {
                    "param": "page",
                    "operator": "==",
                    "value": "74"
                }
            ]
        ],
        "menu_order": 0,
        "position": "acf_after_title",
        "style": "seamless",
        "label_placement": "top",
        "instruction_placement": "label",
        "hide_on_screen": [
            "the_content"
        ],
        "active": 1,
        "description": ""
    },
    {
        "key": "group_58c6674614765",
        "title": "Introduction",
        "fields": [
            {
                "key": "field_58c66a0ec6299",
                "label": "Headline",
                "name": "about_headline",
                "type": "textarea",
                "instructions": "50 character limit",
                "required": 0,
                "conditional_logic": 0,
                "wrapper": {
                    "width": "",
                    "class": "",
                    "id": ""
                },
                "default_value": "",
                "placeholder": "",
                "maxlength": 50,
                "rows": 2,
                "new_lines": "br"
            },
            {
                "key": "field_58c66a1bc629a",
                "label": "Text",
                "name": "about_text",
                "type": "wysiwyg",
                "instructions": "Recommended between 160 - 700 characters.",
                "required": 0,
                "conditional_logic": 0,
                "wrapper": {
                    "width": "",
                    "class": "",
                    "id": ""
                },
                "default_value": "",
                "tabs": "visual",
                "toolbar": "full",
                "media_upload": 0,
                "delay": 0
            },
            {
                "key": "field_58d3e2361e436",
                "label": "Call to action",
                "name": "into_call_to_action",
                "type": "text",
                "instructions": "16 character limit",
                "required": 0,
                "conditional_logic": 0,
                "wrapper": {
                    "width": "",
                    "class": "",
                    "id": ""
                },
                "default_value": "",
                "placeholder": "",
                "prepend": "",
                "append": "",
                "maxlength": 16
            },
            {
                "key": "field_58d3e2491e437",
                "label": "Link",
                "name": "intro_link",
                "type": "page_link",
                "instructions": "",
                "required": 0,
                "conditional_logic": 0,
                "wrapper": {
                    "width": "",
                    "class": "",
                    "id": ""
                },
                "post_type": [
                    "page"
                ],
                "taxonomy": [],
                "allow_null": 0,
                "allow_archives": 1,
                "multiple": 0
            }
        ],
        "location": [
            [
                {
                    "param": "page_template",
                    "operator": "==",
                    "value": "my-templates\/about.php"
                }
            ]
        ],
        "menu_order": 0,
        "position": "acf_after_title",
        "style": "default",
        "label_placement": "top",
        "instruction_placement": "label",
        "hide_on_screen": [
            "the_content"
        ],
        "active": 1,
        "description": ""
    },
    {
        "key": "group_58c2df37349d0",
        "title": "Lead Messaging",
        "fields": [
            {
                "key": "field_58c2df45365b5",
                "label": "Headline",
                "name": "home_headline",
                "type": "text",
                "instructions": "",
                "required": 0,
                "conditional_logic": 0,
                "wrapper": {
                    "width": "",
                    "class": "",
                    "id": ""
                },
                "default_value": "",
                "placeholder": "",
                "prepend": "",
                "append": "",
                "maxlength": 40
            },
            {
                "key": "field_58c2e02ea658b",
                "label": "Introduction",
                "name": "home_introduction",
                "type": "text",
                "instructions": "",
                "required": 0,
                "conditional_logic": 0,
                "wrapper": {
                    "width": "",
                    "class": "",
                    "id": ""
                },
                "default_value": "",
                "placeholder": "",
                "prepend": "",
                "append": "",
                "maxlength": 170
            },
            {
                "key": "field_58d124e4a1904",
                "label": "Call to action",
                "name": "lead_text",
                "type": "text",
                "instructions": "",
                "required": 0,
                "conditional_logic": 0,
                "wrapper": {
                    "width": "",
                    "class": "",
                    "id": ""
                },
                "default_value": "",
                "placeholder": "",
                "prepend": "",
                "append": "",
                "maxlength": 16
            },
            {
                "key": "field_58d124f1a1905",
                "label": "Link",
                "name": "lead_link",
                "type": "page_link",
                "instructions": "",
                "required": 0,
                "conditional_logic": 0,
                "wrapper": {
                    "width": "",
                    "class": "",
                    "id": ""
                },
                "post_type": [
                    "page"
                ],
                "taxonomy": [],
                "allow_null": 0,
                "allow_archives": 0,
                "multiple": 0
            }
        ],
        "location": [
            [
                {
                    "param": "page_template",
                    "operator": "==",
                    "value": "my-templates\/home.php"
                }
            ]
        ],
        "menu_order": 0,
        "position": "acf_after_title",
        "style": "default",
        "label_placement": "top",
        "instruction_placement": "label",
        "hide_on_screen": [
            "the_content"
        ],
        "active": 1,
        "description": ""
    },
    {
        "key": "group_58d141459ce31",
        "title": "Troo contact details",
        "fields": [
            {
                "key": "field_58d2505b62149",
                "label": "General contact details",
                "name": "",
                "type": "tab",
                "instructions": "",
                "required": 0,
                "conditional_logic": 0,
                "wrapper": {
                    "width": "",
                    "class": "",
                    "id": ""
                },
                "placement": "left",
                "endpoint": 0
            },
            {
                "key": "field_58d141509eb61",
                "label": "Telephone number",
                "name": "primary_telephone_number",
                "type": "number",
                "instructions": "",
                "required": 0,
                "conditional_logic": 0,
                "wrapper": {
                    "width": "",
                    "class": "",
                    "id": ""
                },
                "default_value": "",
                "placeholder": "",
                "prepend": "",
                "append": "",
                "min": "",
                "max": "",
                "step": ""
            },
            {
                "key": "field_58d14b1d46ba4",
                "label": "Email address",
                "name": "primary_email_address",
                "type": "email",
                "instructions": "",
                "required": 0,
                "conditional_logic": 0,
                "wrapper": {
                    "width": "",
                    "class": "",
                    "id": ""
                },
                "default_value": "",
                "placeholder": "",
                "prepend": "",
                "append": ""
            },
            {
                "key": "field_58d1503d3a1d1",
                "label": "Social media profiles",
                "name": "social_media",
                "type": "repeater",
                "instructions": "",
                "required": 0,
                "conditional_logic": 0,
                "wrapper": {
                    "width": "",
                    "class": "",
                    "id": ""
                },
                "collapsed": "field_58d150503a1d2",
                "min": 0,
                "max": 0,
                "layout": "table",
                "button_label": "Add social media link",
                "sub_fields": [
                    {
                        "key": "field_58d150503a1d2",
                        "label": "Social media",
                        "name": "which",
                        "type": "select",
                        "instructions": "",
                        "required": 1,
                        "conditional_logic": 0,
                        "wrapper": {
                            "width": "",
                            "class": "",
                            "id": ""
                        },
                        "choices": {
                            "fb": "Facebook",
                            "twt": "Twitter",
                            "linkedin": "Linkedin",
                            "yt": "YouTube"
                        },
                        "default_value": [],
                        "allow_null": 1,
                        "multiple": 0,
                        "ui": 1,
                        "ajax": 1,
                        "return_format": "array",
                        "placeholder": ""
                    },
                    {
                        "key": "field_58d150d03a1d3",
                        "label": "Link to profile",
                        "name": "link_to_profile",
                        "type": "url",
                        "instructions": "",
                        "required": 1,
                        "conditional_logic": 0,
                        "wrapper": {
                            "width": "",
                            "class": "",
                            "id": ""
                        },
                        "default_value": "",
                        "placeholder": ""
                    }
                ]
            },
            {
                "key": "field_58d15963d8f96",
                "label": "Opening times",
                "name": "",
                "type": "tab",
                "instructions": "",
                "required": 0,
                "conditional_logic": 0,
                "wrapper": {
                    "width": "",
                    "class": "",
                    "id": ""
                },
                "placement": "left",
                "endpoint": 0
            },
            {
                "key": "field_58d24e0c462df",
                "label": "Sunday from",
                "name": "sun_from",
                "type": "time_picker",
                "instructions": "",
                "required": 1,
                "conditional_logic": 0,
                "wrapper": {
                    "width": "50",
                    "class": "",
                    "id": ""
                },
                "display_format": "g:i a",
                "return_format": "g:i a"
            },
            {
                "key": "field_58d24e1b462e0",
                "label": "Sunday to",
                "name": "sun_to",
                "type": "time_picker",
                "instructions": "",
                "required": 1,
                "conditional_logic": 0,
                "wrapper": {
                    "width": "50",
                    "class": "",
                    "id": ""
                },
                "display_format": "g:i a",
                "return_format": "g:i a"
            },
            {
                "key": "field_58d15a99d8f98",
                "label": "Monday from",
                "name": "monday_from",
                "type": "time_picker",
                "instructions": "",
                "required": 1,
                "conditional_logic": 0,
                "wrapper": {
                    "width": "50",
                    "class": "",
                    "id": ""
                },
                "display_format": "g:i a",
                "return_format": "g:i a"
            },
            {
                "key": "field_58d15b13f6897",
                "label": "Monday to",
                "name": "monday_to",
                "type": "time_picker",
                "instructions": "",
                "required": 1,
                "conditional_logic": 0,
                "wrapper": {
                    "width": "50",
                    "class": "",
                    "id": ""
                },
                "display_format": "g:i a",
                "return_format": "g:i a"
            },
            {
                "key": "field_58d15b5cfc5f7",
                "label": "Tuesday from",
                "name": "tuesday_from",
                "type": "time_picker",
                "instructions": "",
                "required": 1,
                "conditional_logic": 0,
                "wrapper": {
                    "width": "50",
                    "class": "",
                    "id": ""
                },
                "display_format": "g:i a",
                "return_format": "g:i a"
            },
            {
                "key": "field_58d15b49fc5f6",
                "label": "Tuesday to",
                "name": "tuesday_to",
                "type": "time_picker",
                "instructions": "",
                "required": 1,
                "conditional_logic": 0,
                "wrapper": {
                    "width": "50",
                    "class": "",
                    "id": ""
                },
                "display_format": "g:i a",
                "return_format": "g:i a"
            },
            {
                "key": "field_58d24e25462e1",
                "label": "Wednesday from",
                "name": "wed_from",
                "type": "time_picker",
                "instructions": "",
                "required": 1,
                "conditional_logic": 0,
                "wrapper": {
                    "width": "50",
                    "class": "",
                    "id": ""
                },
                "display_format": "g:i a",
                "return_format": "g:i a"
            },
            {
                "key": "field_58d24e38462e2",
                "label": "Wednesday to",
                "name": "wed_to",
                "type": "time_picker",
                "instructions": "",
                "required": 1,
                "conditional_logic": 0,
                "wrapper": {
                    "width": "50",
                    "class": "",
                    "id": ""
                },
                "display_format": "g:i a",
                "return_format": "g:i a"
            },
            {
                "key": "field_58d24e93462e4",
                "label": "Thursday from",
                "name": "thu_from",
                "type": "time_picker",
                "instructions": "",
                "required": 1,
                "conditional_logic": 0,
                "wrapper": {
                    "width": "50",
                    "class": "",
                    "id": ""
                },
                "display_format": "g:i a",
                "return_format": "g:i a"
            },
            {
                "key": "field_58d24e86462e3",
                "label": "Thursday to",
                "name": "thu_to",
                "type": "time_picker",
                "instructions": "",
                "required": 1,
                "conditional_logic": 0,
                "wrapper": {
                    "width": "50",
                    "class": "",
                    "id": ""
                },
                "display_format": "g:i a",
                "return_format": "g:i a"
            },
            {
                "key": "field_58d24ea8462e6",
                "label": "Friday from",
                "name": "fri_from",
                "type": "time_picker",
                "instructions": "",
                "required": 1,
                "conditional_logic": 0,
                "wrapper": {
                    "width": "50",
                    "class": "",
                    "id": ""
                },
                "display_format": "g:i a",
                "return_format": "g:i a"
            },
            {
                "key": "field_58d24e9d462e5",
                "label": "Friday to",
                "name": "fri_to",
                "type": "time_picker",
                "instructions": "",
                "required": 1,
                "conditional_logic": 0,
                "wrapper": {
                    "width": "50",
                    "class": "",
                    "id": ""
                },
                "display_format": "g:i a",
                "return_format": "g:i a"
            },
            {
                "key": "field_58d24ec2462e8",
                "label": "Saturday from",
                "name": "sat_from",
                "type": "time_picker",
                "instructions": "",
                "required": 1,
                "conditional_logic": 0,
                "wrapper": {
                    "width": "50",
                    "class": "",
                    "id": ""
                },
                "display_format": "g:i a",
                "return_format": "g:i a"
            },
            {
                "key": "field_58d24eb6462e7",
                "label": "Saturday to",
                "name": "sat_to",
                "type": "time_picker",
                "instructions": "",
                "required": 1,
                "conditional_logic": 0,
                "wrapper": {
                    "width": "50",
                    "class": "",
                    "id": ""
                },
                "display_format": "g:i a",
                "return_format": "g:i a"
            }
        ],
        "location": [
            [
                {
                    "param": "options_page",
                    "operator": "==",
                    "value": "troo-general-details"
                }
            ]
        ],
        "menu_order": 0,
        "position": "normal",
        "style": "default",
        "label_placement": "top",
        "instruction_placement": "label",
        "hide_on_screen": "",
        "active": 1,
        "description": ""
    },
    {
        "key": "group_58c66bff3f78b",
        "title": "Broker vs Troo",
        "fields": [
            {
                "key": "field_58c66c0494855",
                "label": "Headline",
                "name": "brokervstroo_headline",
                "type": "text",
                "instructions": "",
                "required": 0,
                "conditional_logic": 0,
                "wrapper": {
                    "width": "",
                    "class": "",
                    "id": ""
                },
                "default_value": "",
                "placeholder": "",
                "prepend": "",
                "append": "",
                "maxlength": ""
            },
            {
                "key": "field_58c66ca428a40",
                "label": "Broker",
                "name": "brokervstroo_broker_title",
                "type": "text",
                "instructions": "",
                "required": 0,
                "conditional_logic": 0,
                "wrapper": {
                    "width": "50",
                    "class": "",
                    "id": ""
                },
                "default_value": "",
                "placeholder": "",
                "prepend": "",
                "append": "",
                "maxlength": ""
            },
            {
                "key": "field_58c66cdedcb98",
                "label": "Troo",
                "name": "brokervstroo_troo_title",
                "type": "text",
                "instructions": "",
                "required": 0,
                "conditional_logic": 0,
                "wrapper": {
                    "width": "50",
                    "class": "",
                    "id": ""
                },
                "default_value": "",
                "placeholder": "",
                "prepend": "",
                "append": "",
                "maxlength": ""
            },
            {
                "key": "field_58c66d1c846ae",
                "label": "Text one",
                "name": "broker_text_one",
                "type": "textarea",
                "instructions": "",
                "required": 0,
                "conditional_logic": 0,
                "wrapper": {
                    "width": "50",
                    "class": "",
                    "id": ""
                },
                "default_value": "",
                "placeholder": "",
                "maxlength": "",
                "rows": 2,
                "new_lines": ""
            },
            {
                "key": "field_58c66d5e846af",
                "label": "Text one",
                "name": "troo_text_one",
                "type": "textarea",
                "instructions": "",
                "required": 0,
                "conditional_logic": 0,
                "wrapper": {
                    "width": "50",
                    "class": "",
                    "id": ""
                },
                "default_value": "",
                "placeholder": "",
                "maxlength": "",
                "rows": 2,
                "new_lines": ""
            },
            {
                "key": "field_58c66d97e29e6",
                "label": "Text two",
                "name": "broker_text_two",
                "type": "textarea",
                "instructions": "",
                "required": 0,
                "conditional_logic": 0,
                "wrapper": {
                    "width": "50",
                    "class": "",
                    "id": ""
                },
                "default_value": "",
                "placeholder": "",
                "maxlength": "",
                "rows": 2,
                "new_lines": ""
            },
            {
                "key": "field_58c66da4e29e7",
                "label": "Text two",
                "name": "troo_text_two",
                "type": "textarea",
                "instructions": "",
                "required": 0,
                "conditional_logic": 0,
                "wrapper": {
                    "width": "50",
                    "class": "",
                    "id": ""
                },
                "default_value": "",
                "placeholder": "",
                "maxlength": "",
                "rows": 2,
                "new_lines": ""
            },
            {
                "key": "field_58c66e79bd4b8",
                "label": "Text three",
                "name": "broker_text_three",
                "type": "textarea",
                "instructions": "",
                "required": 0,
                "conditional_logic": 0,
                "wrapper": {
                    "width": "50",
                    "class": "",
                    "id": ""
                },
                "default_value": "",
                "placeholder": "",
                "maxlength": "",
                "rows": 2,
                "new_lines": ""
            },
            {
                "key": "field_58c66edebd4b9",
                "label": "Text three",
                "name": "troo_text_three",
                "type": "textarea",
                "instructions": "",
                "required": 0,
                "conditional_logic": 0,
                "wrapper": {
                    "width": "50",
                    "class": "",
                    "id": ""
                },
                "default_value": "",
                "placeholder": "",
                "maxlength": "",
                "rows": 2,
                "new_lines": ""
            },
            {
                "key": "field_58c66f039492e",
                "label": "Text four",
                "name": "broker_text_four",
                "type": "textarea",
                "instructions": "",
                "required": 0,
                "conditional_logic": 0,
                "wrapper": {
                    "width": "50",
                    "class": "",
                    "id": ""
                },
                "default_value": "",
                "placeholder": "",
                "maxlength": "",
                "rows": 2,
                "new_lines": ""
            },
            {
                "key": "field_58c66f119492f",
                "label": "Text four",
                "name": "troo_text_four",
                "type": "textarea",
                "instructions": "",
                "required": 0,
                "conditional_logic": 0,
                "wrapper": {
                    "width": "50",
                    "class": "",
                    "id": ""
                },
                "default_value": "",
                "placeholder": "",
                "maxlength": "",
                "rows": 2,
                "new_lines": ""
            },
            {
                "key": "field_58c66f1d94930",
                "label": "Text five",
                "name": "broker_text_five",
                "type": "textarea",
                "instructions": "",
                "required": 0,
                "conditional_logic": 0,
                "wrapper": {
                    "width": "50",
                    "class": "",
                    "id": ""
                },
                "default_value": "",
                "placeholder": "",
                "maxlength": "",
                "rows": 2,
                "new_lines": ""
            },
            {
                "key": "field_58c66f2794931",
                "label": "Text five",
                "name": "troo_text_five",
                "type": "textarea",
                "instructions": "",
                "required": 0,
                "conditional_logic": 0,
                "wrapper": {
                    "width": "50",
                    "class": "",
                    "id": ""
                },
                "default_value": "",
                "placeholder": "",
                "maxlength": "",
                "rows": 2,
                "new_lines": ""
            },
            {
                "key": "field_58d3e7b9baf96",
                "label": "Call to action",
                "name": "broker_call_to_action",
                "type": "text",
                "instructions": "",
                "required": 0,
                "conditional_logic": 0,
                "wrapper": {
                    "width": "",
                    "class": "",
                    "id": ""
                },
                "default_value": "",
                "placeholder": "",
                "prepend": "",
                "append": "",
                "maxlength": ""
            },
            {
                "key": "field_58d3e7c3baf97",
                "label": "Link",
                "name": "broker_link",
                "type": "page_link",
                "instructions": "",
                "required": 0,
                "conditional_logic": 0,
                "wrapper": {
                    "width": "",
                    "class": "",
                    "id": ""
                },
                "post_type": [
                    "page"
                ],
                "taxonomy": [],
                "allow_null": 0,
                "allow_archives": 1,
                "multiple": 0
            }
        ],
        "location": [
            [
                {
                    "param": "page_template",
                    "operator": "==",
                    "value": "my-templates\/about.php"
                }
            ]
        ],
        "menu_order": 1,
        "position": "acf_after_title",
        "style": "default",
        "label_placement": "top",
        "instruction_placement": "label",
        "hide_on_screen": [
            "the_content"
        ],
        "active": 1,
        "description": ""
    },
    {
        "key": "group_58d14fc187ac0",
        "title": "Press details",
        "fields": [
            {
                "key": "field_58d3a7225eb64",
                "label": "Contact details",
                "name": "",
                "type": "tab",
                "instructions": "",
                "required": 0,
                "conditional_logic": 0,
                "wrapper": {
                    "width": "",
                    "class": "",
                    "id": ""
                },
                "placement": "left",
                "endpoint": 0
            },
            {
                "key": "field_58d3a67bab31b",
                "label": "Press contact",
                "name": "press_contact",
                "type": "text",
                "instructions": "Name for contact",
                "required": 0,
                "conditional_logic": 0,
                "wrapper": {
                    "width": "",
                    "class": "",
                    "id": ""
                },
                "default_value": "",
                "placeholder": "",
                "prepend": "",
                "append": "",
                "maxlength": ""
            },
            {
                "key": "field_58d14fdbb7100",
                "label": "Press telephone number",
                "name": "press_telephone_number",
                "type": "number",
                "instructions": "",
                "required": 0,
                "conditional_logic": 0,
                "wrapper": {
                    "width": "",
                    "class": "",
                    "id": ""
                },
                "default_value": "",
                "placeholder": "",
                "prepend": "",
                "append": "",
                "min": "",
                "max": "",
                "step": ""
            },
            {
                "key": "field_58d14fe3b7101",
                "label": "Press email address",
                "name": "press_email_address",
                "type": "email",
                "instructions": "",
                "required": 0,
                "conditional_logic": 0,
                "wrapper": {
                    "width": "",
                    "class": "",
                    "id": ""
                },
                "default_value": "",
                "placeholder": "",
                "prepend": "",
                "append": ""
            },
            {
                "key": "field_58d3a72f5eb65",
                "label": "Toolkit and other",
                "name": "",
                "type": "tab",
                "instructions": "",
                "required": 0,
                "conditional_logic": 0,
                "wrapper": {
                    "width": "",
                    "class": "",
                    "id": ""
                },
                "placement": "left",
                "endpoint": 0
            },
            {
                "key": "field_58d3a7495eb66",
                "label": "About",
                "name": "press_about",
                "type": "wysiwyg",
                "instructions": "Suggested between 50-240 characters",
                "required": 0,
                "conditional_logic": 0,
                "wrapper": {
                    "width": "",
                    "class": "",
                    "id": ""
                },
                "default_value": "",
                "tabs": "visual",
                "toolbar": "full",
                "media_upload": 0,
                "delay": 0
            },
            {
                "key": "field_58d3a7625eb67",
                "label": "Document",
                "name": "press_doc",
                "type": "repeater",
                "instructions": "",
                "required": 0,
                "conditional_logic": 0,
                "wrapper": {
                    "width": "",
                    "class": "",
                    "id": ""
                },
                "collapsed": "",
                "min": 0,
                "max": 0,
                "layout": "table",
                "button_label": "",
                "sub_fields": [
                    {
                        "key": "field_58d3a7735eb68",
                        "label": "Name",
                        "name": "name",
                        "type": "text",
                        "instructions": "",
                        "required": 1,
                        "conditional_logic": 0,
                        "wrapper": {
                            "width": "50",
                            "class": "",
                            "id": ""
                        },
                        "default_value": "",
                        "placeholder": "",
                        "prepend": "",
                        "append": "",
                        "maxlength": ""
                    },
                    {
                        "key": "field_58d3a7875eb69",
                        "label": "File",
                        "name": "file",
                        "type": "file",
                        "instructions": "pdf, jpg, png accepted",
                        "required": 1,
                        "conditional_logic": 0,
                        "wrapper": {
                            "width": "50",
                            "class": "",
                            "id": ""
                        },
                        "return_format": "url",
                        "library": "all",
                        "min_size": "",
                        "max_size": 10,
                        "mime_types": "pdf, jpg, png"
                    }
                ]
            }
        ],
        "location": [
            [
                {
                    "param": "options_page",
                    "operator": "==",
                    "value": "acf-options-press-details"
                }
            ]
        ],
        "menu_order": 1,
        "position": "normal",
        "style": "default",
        "label_placement": "top",
        "instruction_placement": "label",
        "hide_on_screen": "",
        "active": 1,
        "description": ""
    },
    {
        "key": "group_58d10eb26596b",
        "title": "Reasons To Believe",
        "fields": [
            {
                "key": "field_58d10ed6f834f",
                "label": "Reason",
                "name": "reason",
                "type": "repeater",
                "instructions": "",
                "required": 0,
                "conditional_logic": 0,
                "wrapper": {
                    "width": "",
                    "class": "",
                    "id": ""
                },
                "collapsed": "",
                "min": 0,
                "max": 3,
                "layout": "table",
                "button_label": "Add reason",
                "sub_fields": [
                    {
                        "key": "field_58d10f6beddce",
                        "label": "Icon",
                        "name": "reason_icon",
                        "type": "image",
                        "instructions": "",
                        "required": 0,
                        "conditional_logic": 0,
                        "wrapper": {
                            "width": "10",
                            "class": "",
                            "id": ""
                        },
                        "return_format": "id",
                        "preview_size": "thumbnail",
                        "library": "all",
                        "min_width": "",
                        "min_height": "",
                        "min_size": "",
                        "max_width": "",
                        "max_height": "",
                        "max_size": "",
                        "mime_types": ""
                    },
                    {
                        "key": "field_58d10ef8f8350",
                        "label": "Headline",
                        "name": "reason_headline",
                        "type": "text",
                        "instructions": "",
                        "required": 0,
                        "conditional_logic": 0,
                        "wrapper": {
                            "width": "",
                            "class": "",
                            "id": ""
                        },
                        "default_value": "",
                        "placeholder": "",
                        "prepend": "",
                        "append": "",
                        "maxlength": ""
                    },
                    {
                        "key": "field_58d10f09f8351",
                        "label": "Text",
                        "name": "reason_text",
                        "type": "text",
                        "instructions": "",
                        "required": 0,
                        "conditional_logic": 0,
                        "wrapper": {
                            "width": "",
                            "class": "",
                            "id": ""
                        },
                        "default_value": "",
                        "placeholder": "",
                        "prepend": "",
                        "append": "",
                        "maxlength": ""
                    }
                ]
            },
            {
                "key": "field_58d114365f80d",
                "label": "Call to action",
                "name": "text",
                "type": "text",
                "instructions": "",
                "required": 0,
                "conditional_logic": 0,
                "wrapper": {
                    "width": "",
                    "class": "",
                    "id": ""
                },
                "default_value": "",
                "placeholder": "",
                "prepend": "",
                "append": "",
                "maxlength": ""
            },
            {
                "key": "field_58d114435f80e",
                "label": "Link",
                "name": "link",
                "type": "page_link",
                "instructions": "",
                "required": 0,
                "conditional_logic": 0,
                "wrapper": {
                    "width": "",
                    "class": "",
                    "id": ""
                },
                "post_type": [
                    "page"
                ],
                "taxonomy": [],
                "allow_null": 0,
                "allow_archives": 0,
                "multiple": 0
            }
        ],
        "location": [
            [
                {
                    "param": "options_page",
                    "operator": "==",
                    "value": "acf-options-reasons-to-believe"
                }
            ]
        ],
        "menu_order": 1,
        "position": "acf_after_title",
        "style": "seamless",
        "label_placement": "top",
        "instruction_placement": "label",
        "hide_on_screen": "",
        "active": 1,
        "description": ""
    },
    {
        "key": "group_58c2e261cf09b",
        "title": "Process Map",
        "fields": [
            {
                "key": "field_58c2e2b7670cd",
                "label": "Headline",
                "name": "process_headline",
                "type": "text",
                "instructions": "",
                "required": 0,
                "conditional_logic": 0,
                "wrapper": {
                    "width": "",
                    "class": "",
                    "id": ""
                },
                "default_value": "",
                "placeholder": "",
                "prepend": "",
                "append": "",
                "maxlength": ""
            },
            {
                "key": "field_58c2e2c6670ce",
                "label": "Step 1 headline",
                "name": "process_step_1_headline",
                "type": "text",
                "instructions": "",
                "required": 0,
                "conditional_logic": 0,
                "wrapper": {
                    "width": "",
                    "class": "",
                    "id": ""
                },
                "default_value": "",
                "placeholder": "",
                "prepend": "",
                "append": "",
                "maxlength": 20
            },
            {
                "key": "field_58c2e2db670cf",
                "label": "Step 1 text",
                "name": "process_step_1_text",
                "type": "text",
                "instructions": "",
                "required": 0,
                "conditional_logic": 0,
                "wrapper": {
                    "width": "",
                    "class": "",
                    "id": ""
                },
                "default_value": "",
                "placeholder": "",
                "prepend": "",
                "append": "",
                "maxlength": 80
            },
            {
                "key": "field_58c2e2e4670d0",
                "label": "Step 2 headline",
                "name": "process_step_2_headline",
                "type": "text",
                "instructions": "",
                "required": 0,
                "conditional_logic": 0,
                "wrapper": {
                    "width": "",
                    "class": "",
                    "id": ""
                },
                "default_value": "",
                "placeholder": "",
                "prepend": "",
                "append": "",
                "maxlength": 20
            },
            {
                "key": "field_58c2e309670d3",
                "label": "Step 2 text",
                "name": "process_step_2_text",
                "type": "text",
                "instructions": "",
                "required": 0,
                "conditional_logic": 0,
                "wrapper": {
                    "width": "",
                    "class": "",
                    "id": ""
                },
                "default_value": "",
                "placeholder": "",
                "prepend": "",
                "append": "",
                "maxlength": 80
            },
            {
                "key": "field_58c2e2fd670d2",
                "label": "Step 3 headline",
                "name": "process_step_3_headline",
                "type": "text",
                "instructions": "",
                "required": 0,
                "conditional_logic": 0,
                "wrapper": {
                    "width": "",
                    "class": "",
                    "id": ""
                },
                "default_value": "",
                "placeholder": "",
                "prepend": "",
                "append": "",
                "maxlength": 20
            },
            {
                "key": "field_58c2e2ed670d1",
                "label": "Step 3 text",
                "name": "process_step_3_text",
                "type": "text",
                "instructions": "",
                "required": 0,
                "conditional_logic": 0,
                "wrapper": {
                    "width": "",
                    "class": "",
                    "id": ""
                },
                "default_value": "",
                "placeholder": "",
                "prepend": "",
                "append": "",
                "maxlength": 80
            },
            {
                "key": "field_58d13d6f02c6f",
                "label": "Call to action",
                "name": "process_call_to_action",
                "type": "text",
                "instructions": "",
                "required": 0,
                "conditional_logic": 0,
                "wrapper": {
                    "width": "",
                    "class": "",
                    "id": ""
                },
                "default_value": "",
                "placeholder": "",
                "prepend": "",
                "append": "",
                "maxlength": 16
            },
            {
                "key": "field_58d13d9302c70",
                "label": "Link",
                "name": "process_link",
                "type": "page_link",
                "instructions": "",
                "required": 0,
                "conditional_logic": 0,
                "wrapper": {
                    "width": "",
                    "class": "",
                    "id": ""
                },
                "post_type": [
                    "page"
                ],
                "taxonomy": [],
                "allow_null": 0,
                "allow_archives": 0,
                "multiple": 0
            }
        ],
        "location": [
            [
                {
                    "param": "page_template",
                    "operator": "==",
                    "value": "my-templates\/home.php"
                }
            ]
        ],
        "menu_order": 2,
        "position": "acf_after_title",
        "style": "default",
        "label_placement": "top",
        "instruction_placement": "label",
        "hide_on_screen": "",
        "active": 1,
        "description": ""
    },
    {
        "key": "group_58c2e4105be16",
        "title": "Who We Are",
        "fields": [
            {
                "key": "field_58c2e413937dd",
                "label": "Headline",
                "name": "whoweare_headline",
                "type": "text",
                "instructions": "",
                "required": 0,
                "conditional_logic": 0,
                "wrapper": {
                    "width": "",
                    "class": "",
                    "id": ""
                },
                "default_value": "",
                "placeholder": "",
                "prepend": "",
                "append": "",
                "maxlength": 50
            },
            {
                "key": "field_58c2e41e937de",
                "label": "Text",
                "name": "whoweare_text",
                "type": "wysiwyg",
                "instructions": "Between 120-500 characters",
                "required": 0,
                "conditional_logic": 0,
                "wrapper": {
                    "width": "",
                    "class": "",
                    "id": ""
                },
                "default_value": "",
                "tabs": "visual",
                "toolbar": "basic",
                "media_upload": 0,
                "delay": 0
            }
        ],
        "location": [
            [
                {
                    "param": "page_template",
                    "operator": "==",
                    "value": "my-templates\/home.php"
                }
            ]
        ],
        "menu_order": 4,
        "position": "acf_after_title",
        "style": "default",
        "label_placement": "top",
        "instruction_placement": "label",
        "hide_on_screen": "",
        "active": 1,
        "description": ""
    }
]